[
	{
		"Desc": "TOP FIRST",
		"x":65,
		"y":45,
		"width":655,
		"height":430,
		"class":"link",
		"data":
			{
				"url": "http://www.tap-ny.com/?utm_source=OrganicHV&utm_campaign=TAPNY&utm_medium=banner"
			}
	},
	{
		"Desc": "TOP SECOND",
		"x":65,
		"y":490,
		"width":315,
		"height":430,
		"class":"link",
		"data":
			{
				"url": "https://rooster-studios.com/"
			}
	},
	{
    "Desc": "BOTTOM THIRD",
		"x":405,
		"y":490,
		"width":315,
		"height":430,
		"class":"link",
		"data":
			{
				"url": "http://www.peonyvodka.com/"
			}
	}
]
