[
	{
		"Desc": "TOP FIRST",
		"x":65,
		"y":45,
		"width":315,
		"height":430,
		"class":"link",
		"data":
			{
				"url": "http://www.hvdentalarts.com/"
			}
	},
	{
		"Desc": "TOP SECOND",
		"x":390,
		"y":45,
		"width":315,
		"height":430,
		"class":"link",
		"data":
			{
				"url": "http://www.selfmademakers.com/"
			}
	},
	{
    "Desc": "BOTTOM THIRD",
		"x":65,
		"y":490,
		"width":655,
		"height":430,
		"class":"link",
		"data":
			{
				"url": "http://www.innerbeautysalonandspa.net/"
			}
	}
]
